2016/06/01 * guld pre-founding contributions
    mreinstein:Assets                              100 GULD
    mreinstein:Income:guld                        -100 GULD
    guld:Liabilities                         -100 GULD
    guld:Equity:mreinstein                          100 GULD
